D:\lokeshckout\hello-world\SpringMVC\src\main\java\com\hcl\controller\WelcomeController.java
D:\lokeshckout\hello-world\SpringMVC\src\main\java\com\hcl\config\SpringContainerInit.java
D:\lokeshckout\hello-world\SpringMVC\src\main\java\com\hcl\service\WelcomeService.java
D:\lokeshckout\hello-world\SpringMVC\src\main\java\com\hcl\config\Config.java
